This is BibTeX, Version 0.99d (TeX Live 2022/dev/Debian)
Capacity: max_strings=200000, hash_size=200000, hash_prime=170003
The top-level auxiliary file: santos_cv.aux
The style file: habbryr_santos.bst.bst
Database file #1: data_4_cv/publications.bib
You've used 21 entries,
            2221 wiz_defined-function locations,
            665 strings with 10941 characters,
and the built_in function-call counts, 12564 in all, are:
= -- 1154
> -- 956
< -- 0
+ -- 376
- -- 353
* -- 1149
:= -- 2046
add.period$ -- 63
call.type$ -- 21
change.case$ -- 229
chr.to.int$ -- 0
cite$ -- 21
duplicate$ -- 459
empty$ -- 650
format.name$ -- 353
if$ -- 2351
int.to.chr$ -- 0
int.to.str$ -- 21
missing$ -- 21
newline$ -- 108
num.names$ -- 63
pop$ -- 250
preamble$ -- 1
purify$ -- 540
quote$ -- 0
skip$ -- 313
stack$ -- 0
substring$ -- 591
swap$ -- 42
text.length$ -- 0
text.prefix$ -- 0
top$ -- 0
type$ -- 84
warning$ -- 0
while$ -- 93
width$ -- 23
write$ -- 233
