\relax 
\providecommand\HyperFirstAtBeginDocument{\AtBeginDocument}
\HyperFirstAtBeginDocument{\ifx\hyper@anchor\@undefined
\global\let\oldcontentsline\contentsline
\gdef\contentsline#1#2#3#4{\oldcontentsline{#1}{#2}{#3}}
\global\let\oldnewlabel\newlabel
\gdef\newlabel#1#2{\newlabelxx{#1}#2}
\gdef\newlabelxx#1#2#3#4#5#6{\oldnewlabel{#1}{{#2}{#3}}}
\AtEndDocument{\ifx\hyper@anchor\@undefined
\let\contentsline\oldcontentsline
\let\newlabel\oldnewlabel
\fi}
\fi}
\global\let\hyper@last\relax 
\gdef\HyperFirstAtBeginDocument#1{#1}
\providecommand\HyField@AuxAddToFields[1]{}
\providecommand\HyField@AuxAddToCoFields[2]{}
\@writefile{toc}{\contentsline {section}{Education}{1}{section*.1}\protected@file@percent }
\@writefile{toc}{\contentsline {section}{Experience}{1}{section*.2}\protected@file@percent }
\citation{*}
\bibstyle{habbryr_santos.bst}
\bibdata{data_4_cv/publications}
\bibcite{Stroetmann2024}{1}
\bibcite{Tamiru2024}{2}
\bibcite{Bauer2023}{3}
\@writefile{toc}{\contentsline {section}{Awards/Fellowships}{2}{section*.3}\protected@file@percent }
\@writefile{toc}{\contentsline {section}{Publications}{2}{section*.4}\protected@file@percent }
\@writefile{toc}{\contentsline {subsection}{Articles in Peer-Reviewed Journals}{2}{section*.5}\protected@file@percent }
\bibcite{Desalegn2022}{4}
\bibcite{Pinheiro2021}{5}
\bibcite{Gillingham2021}{6}
\bibcite{Volleth2020}{7}
\bibcite{doi:10.1111/cge.13659}{8}
\bibcite{02santos_pablo_s._c._best_2018}{9}
\bibcite{03santos_can_2017}{10}
\bibcite{04santos_mhc-dependent_2016}{11}
\bibcite{06da_silva_absence_2013}{12}
\bibcite{05bompeixe_hla_2013}{13}
\bibcite{07santos_does_2011}{14}
\bibcite{08ziegler_self/nonself_2010}{15}
\bibcite{09santos_variation_2010}{16}
\bibcite{10santos_genomic_2010}{17}
\bibcite{11sens-abuazar_mhc_2009}{18}
\bibcite{12santos_assessment_2009}{19}
\bibcite{a_santos_association_2008}{20}
\bibcite{b_santos_new_2005}{21}
\@writefile{toc}{\contentsline {section}{Teaching and Outreach}{4}{section*.6}\protected@file@percent }
\@writefile{toc}{\contentsline {section}{Software written by me}{5}{section*.7}\protected@file@percent }
\@writefile{toc}{\contentsline {section}{Additional Relevant Skills and Interests}{5}{section*.8}\protected@file@percent }
\newlabel{LastPage}{{}{9}{}{page.9}{}}
\xdef\lastpage@lastpage{9}
\xdef\lastpage@lastpageHy{9}
\gdef \@abspage@last{9}
