\BOOKMARK [1][]{section*.1}{\376\377\000E\000d\000u\000c\000a\000t\000i\000o\000n}{}% 1
\BOOKMARK [1][]{section*.2}{\376\377\000E\000x\000p\000e\000r\000i\000e\000n\000c\000e}{}% 2
\BOOKMARK [1][]{section*.3}{\376\377\000A\000w\000a\000r\000d\000s\000/\000F\000e\000l\000l\000o\000w\000s\000h\000i\000p\000s}{}% 3
\BOOKMARK [1][]{section*.4}{\376\377\000P\000u\000b\000l\000i\000c\000a\000t\000i\000o\000n\000s}{}% 4
\BOOKMARK [2][]{section*.5}{\376\377\000A\000r\000t\000i\000c\000l\000e\000s\000\040\000i\000n\000\040\000P\000e\000e\000r\000-\000R\000e\000v\000i\000e\000w\000e\000d\000\040\000J\000o\000u\000r\000n\000a\000l\000s}{section*.4}% 5
\BOOKMARK [1][]{section*.6}{\376\377\000T\000e\000a\000c\000h\000i\000n\000g\000\040\000a\000n\000d\000\040\000O\000u\000t\000r\000e\000a\000c\000h}{}% 6
\BOOKMARK [1][]{section*.7}{\376\377\000S\000o\000f\000t\000w\000a\000r\000e\000\040\000w\000r\000i\000t\000t\000e\000n\000\040\000b\000y\000\040\000m\000e}{}% 7
\BOOKMARK [1][]{section*.8}{\376\377\000A\000d\000d\000i\000t\000i\000o\000n\000a\000l\000\040\000R\000e\000l\000e\000v\000a\000n\000t\000\040\000S\000k\000i\000l\000l\000s\000\040\000a\000n\000d\000\040\000I\000n\000t\000e\000r\000e\000s\000t\000s}{}% 8
